 _____         _         ____  _                __ _     _     
|_   _|__  ___| |_ ___  | __ )| | _____      __/ _(_)___| |__  
  | |/ _ \/ __| __/ _ \ |  _ \| |/ _ \ \ /\ / / |_| / __| '_ \ 
  | |  __/\__ \ ||  __/ | |_) | | (_) \ V  V /|  _| \__ \ | | |
  |_|\___||___/\__\___| |____/|_|\___/ \_/\_/ |_| |_|___/_| |_|
                                                               
  ____      _       _                                  _         _________  
 / ___|_ __(_)_ __ | |_ ___   __ _ _ __ __ _ _ __   __| | ___   |___ /___ \ 
| |   | '__| | '_ \| __/ _ \ / _` | '__/ _` | '_ \ / _` |/ _ \    |_ \ __) |
| |___| |  | | |_) | || (_) | (_| | | | (_| | | | | (_| | (_) |  ___) / __/ 
 \____|_|  |_| .__/ \__\___/ \__, |_|  \__,_|_| |_|\__,_|\___/  |____/_____|
             |_|             |___/                                          
 _     _                           _        _ ____  ___  _     _ _       
| |__ | | ___   ___ ___  ___    __| | ___  / |___ \( _ )| |__ (_) |_ ___ 
| '_ \| |/ _ \ / __/ _ \/ __|  / _` |/ _ \ | | __) / _ \| '_ \| | __/ __|
| |_) | | (_) | (_| (_) \__ \ | (_| |  __/ | |/ __/ (_) | |_) | | |_\__ \
|_.__/|_|\___/ \___\___/|___/  \__,_|\___| |_|_____\___/|_.__/|_|\__|___/
                                                                         
         _  _    ___   ___   __     _     _ _       
 _____  | || |  / _ \ / _ \ / /_   | |__ (_) |_ ___ 
|_____| | || |_| | | | (_) | '_ \  | '_ \| | __/ __|
|_____| |__   _| |_| |\__, | (_) | | |_) | | |_\__ \
           |_|  \___/   /_/ \___/  |_.__/|_|\__|___/
                                                    
Horário Início 12:18:06
terça-feira dia 14 de janeiro de 2020
{memoria : 22.47 ,
"bateria" : 100 ,
cpu : 27.25} ,
{memoria : 22.47 ,
"bateria" : 100 ,
cpu : 29.50} ,
{memoria : 22.47 ,
"bateria" : 100 ,
cpu : 27.25} ,
{memoria : 22.48 ,
"bateria" : 100 ,
cpu : 27.75} ,
{memoria : 22.48 ,
"bateria" : 100 ,
cpu : 41.50} ,
{memoria : 22.48 ,
"bateria" : 100 ,
cpu : 31.75} ,
{memoria : 22.47 ,
"bateria" : 100 ,
cpu : 42.00} ,
{memoria : 22.47 ,
"bateria" : 100 ,
cpu : 34.50} ,
{memoria : 22.48 ,
"bateria" : 100 ,
cpu : 31.25} ,
{memoria : 22.48 ,
"bateria" : 100 ,
cpu : 32.25} ,
{memoria : 22.46 ,
"bateria" : 100 ,
cpu : 39.00} ,
{memoria : 22.46 ,
"bateria" : 100 ,
cpu : 29.00} ,
Horário Fim 12:18:40
terça-feira dia 14 de janeiro de 2020
